DoubleFloatingProcessor/test.vcd
$date
	Sat Sep 10 16:15:21 2022
$end
$version
	Icarus Verilog
$end
$timescale
	1s
$end
$scope module bench $end
$var event 1 ! write_reg $end
$var event 1 " read_reg $end
$var event 1 # init $end
$var wire 1 $ axi_lite_wready $end
$var wire 1 % axi_lite_rvalid $end
$var wire 32 & axi_lite_rdata [31:0] $end
$var wire 1 ' axi_lite_bvalid $end
$var wire 2 ( axi_lite_bresp [1:0] $end
$var wire 1 ) axi_lite_awready $end
$var wire 1 * axi_lite_arready $end
$var reg 32 + addr [31:0] $end
$var reg 32 , axi_lite_araddr [31:0] $end
$var reg 1 - axi_lite_arvalid $end
$var reg 32 . axi_lite_awaddr [31:0] $end
$var reg 1 / axi_lite_awvalid $end
$var reg 1 0 axi_lite_bready $end
$var reg 1 1 axi_lite_rready $end
$var reg 32 2 axi_lite_wdata [31:0] $end
$var reg 1 3 axi_lite_wvalid $end
$var reg 1 4 clk $end
$var reg 32 5 data [31:0] $end
$var reg 2 6 errno [1:0] $end
$var reg 1 7 rstn $end
$scope module axi_axi_dfp_inst $end
$var wire 1 4 axi_aclk $end
$var wire 1 7 axi_aresetn $end
$var wire 32 8 axi_lite_araddr [31:0] $end
$var wire 1 - axi_lite_arvalid $end
$var wire 32 9 axi_lite_awaddr [31:0] $end
$var wire 1 / axi_lite_awvalid $end
$var wire 1 0 axi_lite_bready $end
$var wire 1 1 axi_lite_rready $end
$var wire 32 : axi_lite_wdata [31:0] $end
$var wire 1 3 axi_lite_wvalid $end
$var reg 1 * axi_lite_arready $end
$var reg 1 ) axi_lite_awready $end
$var reg 2 ; axi_lite_bresp [1:0] $end
$var reg 1 ' axi_lite_bvalid $end
$var reg 32 < axi_lite_rdata [31:0] $end
$var reg 1 % axi_lite_rvalid $end
$var reg 1 $ axi_lite_wready $end
$var reg 32 = conf_addr_buf [31:0] $end
$var reg 32 > conf_data_buf [31:0] $end
$var reg 2 ? err_code [1:0] $end
$var reg 32 @ reg_conf_calc_method [31:0] $end
$var reg 9 A state [8:0] $end
$var reg 9 B state_next [8:0] $end
$upscope $end
$upscope $end
$enddefinitions $end
#0
$dumpvars
bx B
bx A
bx @
bx ?
bx >
bx =
bx <
bx ;
bx :
bx 9
bx 8
17
bx 6
bx 5
04
x3
bx 2
x1
x0
x/
bx .
x-
bx ,
bx +
x*
x)
bx (
x'
bx &
x%
x$
1#
1"
1!
$end
#1
14
#2
04
#3
14
#4
04
#5
14
#6
04
#7
14
#8
04
#9
b0 A
b1 B
b0 @
b0 ?
b0 >
b0 =
0%
b0 &
b0 <
0*
0'
b0 (
b0 ;
0$
0)
01
0-
b0 ,
b0 8
00
03
b0 2
b0 :
0/
b0 .
b0 9
14
1#
07
#10
04
#11
14
#12
04
#13
14
#14
04
#15
14
#16
04
#17
14
#18
04
#19
14
#20
04
#21
14
#22
04
#23
14
#24
04
#25
14
#26
04
#27
14
#28
04
#29
14
#30
04
#31
14
#32
04
#33
14
#34
04
#35
14
#36
04
#37
14
#38
04
#39
14
#40
04
#41
14
#42
04
#43
14
#44
04
#45
14
#46
04
#47
14
#48
04
#49
14
#50
04
#51
14
#52
04
#53
14
#54
04
#55
14
#56
04
#57
14
#58
04
#59
14
#60
04
#61
14
#62
04
#63
14
#64
04
#65
14
#66
04
#67
14
#68
04
#69
14
#70
04
#71
14
#72
04
#73
14
#74
04
#75
14
#76
04
#77
14
#78
04
#79
14
#80
04
#81
14
#82
04
#83
14
#84
04
#85
14
#86
04
#87
14
#88
04
#89
14
#90
04
#91
14
#92
04
#93
14
#94
04
#95
14
#96
04
#97
14
#98
04
#99
14
#100
04
#101
14
#102
04
#103
14
#104
04
#105
14
#106
04
#107
14
#108
04
#109
1*
1)
b1 A
14
17
#110
04
#111
14
#112
04
#113
14
#114
04
#115
14
#116
04
#117
14
#118
04
#119
14
#120
04
#121
14
#122
04
#123
14
#124
04
#125
14
#126
04
#127
14
#128
04
#129
14
#130
04
#131
14
#132
04
#133
14
#134
04
#135
14
#136
04
#137
14
#138
04
#139
14
#140
04
#141
14
#142
04
#143
14
#144
04
#145
14
#146
04
#147
14
#148
04
#149
14
#150
04
#151
14
#152
04
#153
14
#154
04
#155
14
#156
04
#157
14
#158
04
#159
14
#160
04
#161
14
#162
04
#163
14
#164
04
#165
14
#166
04
#167
14
#168
04
#169
14
#170
04
#171
14
#172
04
#173
14
#174
04
#175
14
#176
04
#177
14
#178
04
#179
14
#180
04
#181
14
#182
04
#183
14
#184
04
#185
14
#186
04
#187
14
#188
04
#189
14
#190
04
#191
14
#192
04
#193
14
#194
04
#195
14
#196
04
#197
14
#198
04
#199
14
#200
04
#201
14
#202
04
#203
14
#204
04
#205
14
#206
04
#207
14
#208
04
#209
14
#210
04
#211
14
#212
04
#213
14
#214
04
#215
14
#216
04
#217
14
#218
04
#219
14
#220
04
#221
14
#222
04
#223
14
#224
04
#225
14
#226
04
#227
14
#228
04
#229
14
#230
04
#231
14
#232
04
#233
14
#234
04
#235
14
#236
04
#237
14
#238
04
#239
14
#240
04
#241
14
#242
04
#243
14
#244
04
#245
14
#246
04
#247
14
#248
04
#249
14
#250
04
#251
14
#252
04
#253
14
#254
04
#255
14
#256
04
#257
14
#258
04
#259
14
#260
04
#261
14
#262
04
#263
14
#264
04
#265
14
#266
04
#267
14
#268
04
#269
14
#270
04
#271
14
#272
04
#273
14
#274
04
#275
14
#276
04
#277
14
#278
04
#279
14
#280
04
#281
14
#282
04
#283
14
#284
04
#285
14
#286
04
#287
14
#288
04
#289
14
#290
04
#291
14
#292
04
#293
14
#294
04
#295
14
#296
04
#297
14
#298
04
#299
14
#300
04
#301
14
#302
04
#303
14
#304
04
#305
14
#306
04
#307
14
#308
04
#309
14
#310
04
#311
14
#312
04
#313
14
#314
04
#315
14
#316
04
#317
14
#318
04
#319
14
#320
04
#321
14
#322
04
#323
14
#324
04
#325
14
#326
04
#327
14
#328
04
#329
14
#330
04
#331
14
#332
04
#333
14
#334
04
#335
14
#336
04
#337
14
#338
04
#339
14
#340
04
#341
14
#342
04
#343
14
#344
04
#345
14
#346
04
#347
14
#348
04
#349
14
#350
04
#351
14
#352
04
#353
14
#354
04
#355
14
#356
04
#357
14
#358
04
#359
14
#360
04
#361
14
#362
04
#363
14
#364
04
#365
14
#366
04
#367
14
#368
04
#369
14
#370
04
#371
14
#372
04
#373
14
#374
04
#375
14
#376
04
#377
14
#378
04
#379
14
#380
04
#381
14
#382
04
#383
14
#384
04
#385
14
#386
04
#387
14
#388
04
#389
14
#390
04
#391
14
#392
04
#393
14
#394
04
#395
14
#396
04
#397
14
#398
04
#399
14
#400
04
#401
14
#402
04
#403
14
#404
04
#405
14
#406
04
#407
14
#408
04
#409
14
#410
04
#411
14
#412
04
#413
14
#414
04
#415
14
#416
04
#417
14
#418
04
#419
14
#420
04
#421
14
#422
04
#423
14
#424
04
#425
14
#426
04
#427
14
#428
04
#429
14
#430
04
#431
14
#432
04
#433
14
#434
04
#435
14
#436
04
#437
14
#438
04
#439
14
#440
04
#441
14
#442
04
#443
14
#444
04
#445
14
#446
04
#447
14
#448
04
#449
14
#450
04
#451
14
#452
04
#453
14
#454
04
#455
14
#456
04
#457
14
#458
04
#459
14
#460
04
#461
14
#462
04
#463
14
#464
04
#465
14
#466
04
#467
14
#468
04
#469
14
#470
04
#471
14
#472
04
#473
14
#474
04
#475
14
#476
04
#477
14
#478
04
#479
14
#480
04
#481
14
#482
04
#483
14
#484
04
#485
14
#486
04
#487
14
#488
04
#489
14
#490
04
#491
14
#492
04
#493
14
#494
04
#495
14
#496
04
#497
14
#498
04
#499
14
#500
04
#501
14
#502
04
#503
14
#504
04
#505
14
#506
04
#507
14
#508
04
#509
14
#510
04
#511
14
#512
04
#513
14
#514
04
#515
14
#516
04
#517
14
#518
04
#519
14
#520
04
#521
14
#522
04
#523
14
#524
04
#525
14
#526
04
#527
14
#528
04
#529
14
#530
04
#531
14
#532
04
#533
14
#534
04
#535
14
#536
04
#537
14
#538
04
#539
14
#540
04
#541
14
#542
04
#543
14
#544
04
#545
14
#546
04
#547
14
#548
04
#549
14
#550
04
#551
14
#552
04
#553
14
#554
04
#555
14
#556
04
#557
14
#558
04
#559
14
#560
04
#561
14
#562
04
#563
14
#564
04
#565
14
#566
04
#567
14
#568
04
#569
14
#570
04
#571
14
#572
04
#573
14
#574
04
#575
14
#576
04
#577
14
#578
04
#579
14
#580
04
#581
14
#582
04
#583
14
#584
04
#585
14
#586
04
#587
14
#588
04
#589
14
#590
04
#591
14
#592
04
#593
14
#594
04
#595
14
#596
04
#597
14
#598
04
#599
14
#600
04
#601
14
#602
04
#603
14
#604
04
#605
14
#606
04
#607
14
#608
04
#609
14
#610
04
#611
14
#612
04
#613
14
#614
04
#615
14
#616
04
#617
14
#618
04
#619
14
#620
04
#621
14
#622
04
#623
14
#624
04
#625
14
#626
04
#627
14
#628
04
#629
14
#630
04
#631
14
#632
04
#633
14
#634
04
#635
14
#636
04
#637
14
#638
04
#639
14
#640
04
#641
14
#642
04
#643
14
#644
04
#645
14
#646
04
#647
14
#648
04
#649
14
#650
04
#651
14
#652
04
#653
14
#654
04
#655
14
#656
04
#657
14
#658
04
#659
14
#660
04
#661
14
#662
04
#663
14
#664
04
#665
14
#666
04
#667
14
#668
04
#669
14
#670
04
#671
14
#672
04
#673
14
#674
04
#675
14
#676
04
#677
14
#678
04
#679
14
#680
04
#681
14
#682
04
#683
14
#684
04
#685
14
#686
04
#687
14
#688
04
#689
14
#690
04
#691
14
#692
04
#693
14
#694
04
#695
14
#696
04
#697
14
#698
04
#699
14
#700
04
#701
14
#702
04
#703
14
#704
04
#705
14
#706
04
#707
14
#708
04
#709
14
#710
04
#711
14
#712
04
#713
14
#714
04
#715
14
#716
04
#717
14
#718
04
#719
14
#720
04
#721
14
#722
04
#723
14
#724
04
#725
14
#726
04
#727
14
#728
04
#729
14
#730
04
#731
14
#732
04
#733
14
#734
04
#735
14
#736
04
#737
14
#738
04
#739
14
#740
04
#741
14
#742
04
#743
14
#744
04
#745
14
#746
04
#747
14
#748
04
#749
14
#750
04
#751
14
#752
04
#753
14
#754
04
#755
14
#756
04
#757
14
#758
04
#759
14
#760
04
#761
14
#762
04
#763
14
#764
04
#765
14
#766
04
#767
14
#768
04
#769
14
#770
04
#771
14
#772
04
#773
14
#774
04
#775
14
#776
04
#777
14
#778
04
#779
14
#780
04
#781
14
#782
04
#783
14
#784
04
#785
14
#786
04
#787
14
#788
04
#789
14
#790
04
#791
14
#792
04
#793
14
#794
04
#795
14
#796
04
#797
14
#798
04
#799
14
#800
04
#801
14
#802
04
#803
14
#804
04
#805
14
#806
04
#807
14
#808
04
#809
14
#810
04
#811
14
#812
04
#813
14
#814
04
#815
14
#816
04
#817
14
#818
04
#819
14
#820
04
#821
14
#822
04
#823
14
#824
04
#825
14
#826
04
#827
14
#828
04
#829
14
#830
04
#831
14
#832
04
#833
14
#834
04
#835
14
#836
04
#837
14
#838
04
#839
14
#840
04
#841
14
#842
04
#843
14
#844
04
#845
14
#846
04
#847
14
#848
04
#849
14
#850
04
#851
14
#852
04
#853
14
#854
04
#855
14
#856
04
#857
14
#858
04
#859
14
#860
04
#861
14
#862
04
#863
14
#864
04
#865
14
#866
04
#867
14
#868
04
#869
14
#870
04
#871
14
#872
04
#873
14
#874
04
#875
14
#876
04
#877
14
#878
04
#879
14
#880
04
#881
14
#882
04
#883
14
#884
04
#885
14
#886
04
#887
14
#888
04
#889
14
#890
04
#891
14
#892
04
#893
14
#894
04
#895
14
#896
04
#897
14
#898
04
#899
14
#900
04
#901
14
#902
04
#903
14
#904
04
#905
14
#906
04
#907
14
#908
04
#909
14
#910
04
#911
14
#912
04
#913
14
#914
04
#915
14
#916
04
#917
14
#918
04
#919
14
#920
04
#921
14
#922
04
#923
14
#924
04
#925
14
#926
04
#927
14
#928
04
#929
14
#930
04
#931
14
#932
04
#933
14
#934
04
#935
14
#936
04
#937
14
#938
04
#939
14
#940
04
#941
14
#942
04
#943
14
#944
04
#945
14
#946
04
#947
14
#948
04
#949
14
#950
04
#951
14
#952
04
#953
14
#954
04
#955
14
#956
04
#957
14
#958
04
#959
14
#960
04
#961
14
#962
04
#963
14
#964
04
#965
14
#966
04
#967
14
#968
04
#969
14
#970
04
#971
14
#972
04
#973
14
#974
04
#975
14
#976
04
#977
14
#978
04
#979
14
#980
04
#981
14
#982
04
#983
14
#984
04
#985
14
#986
04
#987
14
#988
04
#989
14
#990
04
#991
14
#992
04
#993
14
#994
04
#995
14
#996
04
#997
14
#998
04
#999
14
#1000
04
#1001
14
#1002
04
#1003
14
#1004
04
#1005
14
#1006
04
#1007
14
#1008
04
#1009
14
#1010
04
#1011
14
#1012
04
#1013
14
#1014
04
#1015
14
#1016
04
#1017
14
#1018
04
#1019
14
#1020
04
#1021
14
#1022
04
#1023
14
#1024
04
#1025
14
#1026
04
#1027
14
#1028
04
#1029
14
#1030
04
#1031
14
#1032
04
#1033
14
#1034
04
#1035
14
#1036
04
#1037
14
#1038
04
#1039
14
#1040
04
#1041
14
#1042
04
#1043
14
#1044
04
#1045
14
#1046
04
#1047
14
#1048
04
#1049
14
#1050
04
#1051
14
#1052
04
#1053
14
#1054
04
#1055
14
#1056
04
#1057
14
#1058
04
#1059
14
#1060
04
#1061
14
#1062
04
#1063
14
#1064
04
#1065
14
#1066
04
#1067
14
#1068
04
#1069
14
#1070
04
#1071
14
#1072
04
#1073
14
#1074
04
#1075
14
#1076
04
#1077
14
#1078
04
#1079
14
#1080
04
#1081
14
#1082
04
#1083
14
#1084
04
#1085
14
#1086
04
#1087
14
#1088
04
#1089
14
#1090
04
#1091
14
#1092
04
#1093
14
#1094
04
#1095
14
#1096
04
#1097
14
#1098
04
#1099
14
#1100
04
#1101
14
#1102
04
#1103
14
#1104
04
#1105
14
#1106
04
#1107
14
#1108
04
#1109
b0 6
14
1!
b10111010010000111011011101 5
b0 +
#1110
04
#1111
14
#1112
04
#1113
14
#1114
04
#1115
14
#1116
04
#1117
14
#1118
04
#1119
1$
0*
0)
b10 A
b10 B
14
1/
#1120
04
#1121
0/
14
1#
#1122
04
#1123
14
#1124
04
#1125
14
#1126
04
#1127
14
#1128
04
#1129
14
#1130
04
#1131
b1 ?
b10111010010000111011011101 @
0$
b11 A
b100 B
b10111010010000111011011101 >
14
13
b10111010010000111011011101 2
b10111010010000111011011101 :
#1132
04
#1133
1'
b100 A
03
b0 2
b0 :
14
1#
#1134
04
#1135
14
#1136
04
#1137
14
#1138
04
#1139
14
#1140
04
#1141
14
#1142
04
#1143
b0 ?
b0 >
1*
0'
1)
b1 A
b0 (
b0 ;
b1 B
14
10
#1144
04
#1145
00
14
1#
